{
    "KPlugin": {
        "Category": "Appearance",
        "Description": "Helper Effect for KScreen",
        "Description[az]": "KScreen üşün köməkçi effekti",
        "Description[ca]": "Efecte auxiliar per al KScreen",
        "Description[cs]": "Pomocný efekt pro KScreen",
        "Description[es]": "Efecto auxiliar para KScreen",
        "Description[fr]": "Effet d'assistance pour KScreen",
        "Description[ia]": "Effecto de adjutante pro KScreen",
        "Description[it]": "Effetto di assistenza per KScreen",
        "Description[ko]": "KScreen 도우미 효과",
        "Description[nl]": "Effect van hulp voor KScreen",
        "Description[pl]": "Efekt pomocniczy dla KEkranu",
        "Description[pt_BR]": "Efeito auxiliar do KScreen",
        "Description[sl]": "Učinek pomočnika za KScreen",
        "Description[sv]": "Hjälpeffekt för Kskärm",
        "Description[uk]": "Допоміжний ефект KScreen",
        "Description[vi]": "Hiệu ứng trợ giúp cho KScreen",
        "Description[x-test]": "xxHelper Effect for KScreenxx",
        "Description[zh_CN]": "KScreen 的辅助特效",
        "EnabledByDefault": true,
        "Id": "kscreen",
        "License": "GPL",
        "Name": "Kscreen",
        "Name[az]": "Kscreen",
        "Name[ca]": "Kscreen",
        "Name[cs]": "Kscreen",
        "Name[es]": "Kscreen",
        "Name[fr]": "Kscreen",
        "Name[ia]": "Kscreen",
        "Name[it]": "Kscreen",
        "Name[ko]": "Kscreen",
        "Name[nl]": "Kscreen",
        "Name[pl]": "KEkran",
        "Name[pt_BR]": "KScreen",
        "Name[sl]": "Kscreen",
        "Name[sv]": "Kskärm",
        "Name[uk]": "Kscreen",
        "Name[vi]": "Kscreen",
        "Name[x-test]": "xxKscreenxx",
        "Name[zh_CN]": "Kscreen 辅助特效"
    },
    "org.kde.kwin.effect": {
        "internal": true
    }
}
