{
    "KPlugin": {
        "Category": "Accessibility",
        "Description": "Help you locate the center of the screen when moving a window",
        "Description[az]": "Pəncərələrin yeri dəyişdirilən zaman sizə ekranın mərkəzini təyin etməyə imkan verir",
        "Description[ca]": "Ajuda a ubicar el centre de la pantalla en moure una finestra",
        "Description[cs]": "Pomůže najít střed obrazovky při přesunu okna",
        "Description[es]": "Le ayuda a localizar el centro de la pantalla cuando se mueve una ventana",
        "Description[fr]": "Vous aider à localiser le centre de l'écran lors du déplacement d'une fenêtre",
        "Description[ia]": "Adjuta localisar le centro del schermo quando tu move un fenestra",
        "Description[it]": "Ti aiuta a trovare il centro dello schermo quando sposti una finestra",
        "Description[ko]": "창을 이동할 때 화면 중심을 잡아 줍니다",
        "Description[nl]": "Helpt u om het midden van het venster te bepalen bij het verplaatsen van het venster",
        "Description[pl]": "Pomaga znaleźć środek ekranu przy przesuwaniu okna",
        "Description[pt_BR]": "Ajuda-o a localizar o centro da tela ao mover uma janela",
        "Description[sl]": "Pomoč pri lokaciji središča zaslona ob premikanju okna",
        "Description[sv]": "Hjälper dig lokalisera bildskärmens mitt när ett fönster flyttas",
        "Description[uk]": "Допомога у пошуку центра екрана, коли ви пересуватимете вікно",
        "Description[vi]": "Giúp bạn định vị tâm của màn hình khi di chuyển cửa sổ",
        "Description[x-test]": "xxHelp you locate the center of the screen when moving a windowxx",
        "Description[zh_CN]": "在移动窗口时显示窗口和桌面的中心位置辅助线，以便对齐两者",
        "EnabledByDefault": false,
        "Id": "snaphelper",
        "License": "GPL",
        "Name": "Snap Helper",
        "Name[az]": "Yerləşdirmə köməkçisi",
        "Name[ca]": "Ajudant de desplaçament",
        "Name[cs]": "Pomůcka přichytávání",
        "Name[es]": "Auxiliar de ajuste",
        "Name[fr]": "Assistant pour Snap",
        "Name[ia]": "Adjutante de photo",
        "Name[it]": "Centratore",
        "Name[ko]": "자석 효과",
        "Name[nl]": "Vastpinhulp",
        "Name[pl]": "Pomocnik przeciągania",
        "Name[pt_BR]": "Assistente de ajuste",
        "Name[sl]": "Pomočnik posnetka zaslona",
        "Name[sv]": "Bindningshjälp",
        "Name[uk]": "Помічник розташування",
        "Name[vi]": "Trợ giúp nhanh",
        "Name[x-test]": "xxSnap Helperxx",
        "Name[zh_CN]": "窗口居中辅助线"
    },
    "org.kde.kwin.effect": {
        "video": "https://files.kde.org/plasma/kwin/effect-videos/snap_helper.mp4"
    }
}
