{
    "KPlugin": {
        "Category": "Window Management",
        "Description": "Zoom out until all opened windows can be displayed side-by-side",
        "Description[az]": "Bütün açıq pəncərələrin miniatürünü yan-yana göstərir",
        "Description[ca]": "Redueix fins que totes les finestres obertes es poden mostrar una al costat de l'altra",
        "Description[cs]": "Oddálí plochu, aby byla vidět všechna okna",
        "Description[es]": "Reducir hasta que todas las ventanas abiertas se puedan mostrar una al lado de la otra",
        "Description[fr]": "Faire un zoom arrière jusqu'à ce que toutes les fenêtres ouvertes puissent être affichées côte à côte",
        "Description[ia]": "Zoom foras usque omne fenestras aperite pote esser monstrate flanco a flanco",
        "Description[it]": "Arretra per far vedere tutte le finestre aperte fianco a fianco",
        "Description[ko]": "모든 열린 창을 축소시켜서 한 화면에 보이도록 합니다",
        "Description[nl]": "Zoomt uit totdat alle geopende vensters zij-aan-zij kunnen worden getoond",
        "Description[pl]": "Pomniejsza do chwili, aż wszystkie otwarte okna będą widoczne obok siebie",
        "Description[pt_BR]": "Reduz até que todas as janelas abertas possam ser apresentadas lado a lado",
        "Description[sl]": "Oddaljite, dokler se ne vsa odprta okna ne prikažejo eno poleg drugega",
        "Description[sv]": "Zooma ut till alla öppnade fönster kan visas sida vid sida",
        "Description[uk]": "Зменшення масштабу вікон так, щоб всі відкриті вікна можна було розташувати поряд",
        "Description[vi]": "Thu nhỏ cho đến khi tất cả các cửa sổ đang mở hiển thị được cạnh nhau",
        "Description[x-test]": "xxZoom out until all opened windows can be displayed side-by-sidexx",
        "Description[zh_CN]": "所有窗口缩小后平铺显示在一个画面上",
        "EnabledByDefault": true,
        "Id": "presentwindows",
        "License": "GPL",
        "Name": "Present Windows",
        "Name[az]": "Hazırkı pəncərələr",
        "Name[ca]": "Presenta les finestres",
        "Name[cs]": "Prezentace oken",
        "Name[es]": "Presentar ventanas",
        "Name[fr]": "Fenêtres actuelles",
        "Name[ia]": "Fenestras actual",
        "Name[it]": "Presenta le finestre",
        "Name[ko]": "창 진열하기",
        "Name[nl]": "Vensters presenteren",
        "Name[pl]": "Prezentacja okien",
        "Name[pt]": "Apresentar as Janelas",
        "Name[pt_BR]": "Apresentar janelas",
        "Name[sl]": "Prikaži okna",
        "Name[sv]": "Befintliga fönster",
        "Name[uk]": "Показ вікон",
        "Name[vi]": "Các cửa sổ hiện thời",
        "Name[x-test]": "xxPresent Windowsxx",
        "Name[zh_CN]": "窗口平铺展示"
    },
    "X-KDE-ConfigModule": "kwin_presentwindows_config",
    "org.kde.kwin.effect": {
        "video": "https://files.kde.org/plasma/kwin/effect-videos/present_windows.mp4"
    }
}
