{
    "KPlugin": {
        "Category": "Appearance",
        "Description": "Make modal dialogs smoothly fly in and out when they are shown or hidden",
        "Description[az]": "Modal pəncərələr rəvan şəkildə uçuşla göstərilir və ya gizlədilir",
        "Description[ca]": "Fa que els diàlegs modals entrin o surtin volant quan es mostren o s'oculten",
        "Description[cs]": "Nechat modální dialogy plynule zmizet/objevit se, pokud jsou zobrazeny resp. skryty",
        "Description[es]": "Hace que los diálogos modales vuelen suavemente hacia adentro y hacia afuera cuando se muestran u ocultan",
        "Description[fr]": "Fait voler progressivement en avant ou en arrière les boîtes de dialogue modales lors de leurs affichages ou masquages",
        "Description[ia]": "Face que le dialogos modal pote volar dulcemente  intra e foras quando illes es monstrate o celate",
        "Description[it]": "Fai planare le finestre modali quando appaiono e scompaiono",
        "Description[ko]": "모달 대화 상자를 보이거나 숨길 때 부드럽게 날아다니도록 합니다",
        "Description[nl]": "Laat modale dialogen vloeiend in/uitvliegen als ze worden getoond of verborgen",
        "Description[pl]": "Okna dialogowe są gładko wyciągane przy otwieraniu i wsuwane przy zamykaniu",
        "Description[pt_BR]": "Faz as janelas voarem suavemente quando são exibidas ou ocultadas",
        "Description[sl]": "Modalna okna gladko priletijo in odletijo, kadar se prikažejo ali skrijejo",
        "Description[sv]": "Gör att dialogrutor mjukt flyger in eller ut när de visas eller döljs",
        "Description[uk]": "Плавне влітання або відлітання вікон під час їх появи або приховування",
        "Description[vi]": "Làm các hộp thoại chế độ bay vào và ra một cách êm dịu khi chúng hiện ra và biến mất",
        "Description[x-test]": "xxMake modal dialogs smoothly fly in and out when they are shown or hiddenxx",
        "Description[zh_CN]": "对话框显示/隐藏时绘制过渡动画",
        "EnabledByDefault": false,
        "Id": "sheet",
        "License": "GPL",
        "Name": "Sheet",
        "Name[az]": "Vərəq",
        "Name[ca]": "Full",
        "Name[cs]": "List",
        "Name[es]": "Hoja",
        "Name[fr]": "Feuille",
        "Name[ia]": "Folio",
        "Name[it]": "Foglio",
        "Name[ko]": "시트",
        "Name[nl]": "Werkblad",
        "Name[pl]": "Arkusz",
        "Name[pt_BR]": "Folha",
        "Name[sl]": "List",
        "Name[sv]": "Blad",
        "Name[uk]": "Аркуш",
        "Name[vi]": "Tấm mỏng",
        "Name[x-test]": "xxSheetxx",
        "Name[zh_CN]": "对话框显隐过渡"
    }
}
