{
    "KPlugin": {
        "Category": "Accessibility",
        "Description": "Magnify the entire desktop",
        "Description[az]": "İş Masasının miqyasının dəyişdirilməsi",
        "Description[ca]": "Amplia tot l'escriptori",
        "Description[cs]": "Přiblíží celou plochu",
        "Description[es]": "Ampliar todo el escritorio",
        "Description[fr]": "Agrandir la totalité du bureau",
        "Description[ia]": "Aggrandi le integre scriptorio",
        "Description[it]": "Ingrandisce l'intero desktop",
        "Description[ko]": "전체 바탕 화면을 확대합니다",
        "Description[nl]": "Vergroot het gehele bureaublad",
        "Description[pl]": "Powiększa cały pulpit",
        "Description[pt_BR]": "Amplia a área de trabalho inteira",
        "Description[sl]": "Povečaj celotno namizje",
        "Description[sv]": "Förstora hela skrivbordet",
        "Description[uk]": "Збільшення цілої стільниці",
        "Description[vi]": "Phóng đại toàn bộ bàn làm việc",
        "Description[x-test]": "xxMagnify the entire desktopxx",
        "Description[zh_CN]": "放大显示整个桌面，视图跟随鼠标移动",
        "EnabledByDefault": true,
        "Id": "zoom",
        "License": "GPL",
        "Name": "Zoom",
        "Name[az]": "Miqyas",
        "Name[ca]": "Zoom",
        "Name[cs]": "Zvětšení",
        "Name[es]": "Ampliación",
        "Name[fr]": "Zoom",
        "Name[ia]": "Zoom",
        "Name[it]": "Ingrandimento",
        "Name[ko]": "확대/축소",
        "Name[nl]": "Zoomen",
        "Name[pl]": "Powiększanie",
        "Name[pt]": "Ampliação",
        "Name[pt_BR]": "Zoom",
        "Name[sl]": "Zoom",
        "Name[sv]": "Zooma",
        "Name[uk]": "Масштабування",
        "Name[vi]": "Thu phóng",
        "Name[x-test]": "xxZoomxx",
        "Name[zh_CN]": "缩放"
    },
    "X-KDE-ConfigModule": "kwin_zoom_config",
    "org.kde.kwin.effect": {
        "exclusiveGroup": "magnifiers",
        "video": "https://files.kde.org/plasma/kwin/effect-videos/zoom.ogv"
    }
}
