{
    "KPlugin": {
        "Category": "Appearance",
        "Description": "Blurs the background behind semi-transparent windows",
        "Description[az]": "Yarımşəffaf pəncərələrin altındakı fonu yayğınlaşdırmaq",
        "Description[ca]": "Difumina el fons de darrere de les finestres semitransparents",
        "Description[cs]": "Rozostří pozadí poloprůhledných oken",
        "Description[es]": "Difumina el fondo detrás de las ventanas semitransparentes",
        "Description[fr]": "Rend flou l'arrière-plan sous les fenêtres semi-transparentes",
        "Description[ia]": "Obscura le fundo detra fenestras semi-transparente",
        "Description[it]": "Sfoca lo sfondo dietro a finestre semitrasparenti",
        "Description[ko]": "반투명 창의 뒷배경을 흐리게 합니다",
        "Description[nl]": "Vervaagt de achtergrond van halftransparante vensters",
        "Description[pl]": "Rozmywa tło za półprzezroczystymi oknami",
        "Description[pt_BR]": "Borra o plano de fundo por trás das janelas semitransparentes",
        "Description[sl]": "Zamegli ozadje za polprosojnimi okni",
        "Description[sv]": "Gör bakgrunden bakom halvgenomskinliga fönster suddig",
        "Description[uk]": "Розмивання тла напівпрозорих вікон",
        "Description[vi]": "Làm mờ phần nền phía sau các cửa sổ bán trong suốt",
        "Description[x-test]": "xxBlurs the background behind semi-transparent windowsxx",
        "Description[zh_CN]": "对半透明窗口的背景进行虚化处理",
        "EnabledByDefault": true,
        "Id": "blur",
        "License": "GPL",
        "Name": "Blur",
        "Name[az]": "Bulanıq",
        "Name[ca]": "Difuminat",
        "Name[cs]": "Rozostření",
        "Name[es]": "Desenfocar",
        "Name[fr]": "Flou",
        "Name[ia]": "Obscura (Blur)",
        "Name[it]": "Sfocatura",
        "Name[ko]": "흐리게",
        "Name[nl]": "Vervagen",
        "Name[pl]": "Rozmycie",
        "Name[pt]": "BlueFish",
        "Name[pt_BR]": "Borrar",
        "Name[sl]": "Zamegljeno",
        "Name[sv]": "Oskärpa",
        "Name[uk]": "Розмиття",
        "Name[vi]": "Mờ",
        "Name[x-test]": "xxBlurxx",
        "Name[zh_CN]": "窗口背景虚化"
    },
    "X-KDE-ConfigModule": "kwin_blur_config",
    "org.kde.kwin.effect": {
        "enabledByDefaultMethod": true
    }
}
